{"count":78,"total_pages":7,"current_page":1,"page_size":12,"has_next":true,"has_previous":false,"next":"?page=2&page_size=12","previous":null,"results":[{"first_name":"Luis Gabriel","last_name":"Rentoza","email":"luisgabriel.rentoza@gmail.com","phone_number":"09240557750","address":"204 Bayabas St. Napico Manggahan, Pasig City","notes":"Enjoys hot stone therapy","created_at":"2025-06-18T18:31:42.706570+00:00"},{"first_name":"Samantha Angeli","last_name":"Aldave","email":"aldavesam@outlook.com","phone_number":"09278102719","address":"36 B San Buenaventura St. Bagong Ilog, Pasig City","notes":"Prefers weekend appointments","created_at":"2025-06-18T18:31:43.173943+00:00"},{"first_name":"Winnie Grace","last_name":"Gregorio","email":"winniegrace470@outlook.com","phone_number":"09292369920","address":"#80 2nd St. Country Side, Pasig City","notes":"Frequent client, has membership package","created_at":"2025-06-18T18:31:43.638044+00:00"},{"first_name":"Luis Gabriel","last_name":"Napalinga","email":"luisgabriel_napalinga@gmail.com","phone_number":"09278516636","address":"Villa Cuana P3, Pinagbuhatan, Pasig City","notes":"Frequent client, has membership package","created_at":"2025-06-18T18:31:44.104044+00:00"},{"first_name":"Katherine","last_name":"Del Rosario","email":"katherinedelrosario@hotmail.com","phone_number":"09240767163","address":"B4 L16 Alley 1 St. Cent. 2 Pinagbuhatan, Pasig City","notes":"Prefers weekend appointments","created_at":"2025-06-18T18:31:44.569115+00:00"},{"first_name":"Jehezekiah Reign","last_name":"Paguio","email":"jehezekiahreign.paguio@hotmail.com","phone_number":"09393459168","address":"Blv. 15 Road 30 Planters Cainta, Pasig City","notes":"","created_at":"2025-06-18T18:31:45.034115+00:00"},{"first_name":"Leo Andrew","last_name":"Ramos","email":"leoandrew612@hotmail.com","phone_number":"09280673132","address":"100 San Agustin Palatiw, Pasig City","notes":"Prefers female therapist","created_at":"2025-06-18T18:31:45.499215+00:00"},{"first_name":"Maridel","last_name":"Viloria","email":"maridel.viloria@yahoo.com","phone_number":"09248202890","address":"38-20 Alvarez Comp. Maybunga, Pasig City","notes":"","created_at":"2025-06-18T18:31:45.965215+00:00"},{"first_name":"Nathalya","last_name":"Peralta","email":"nathalya.peralta@hotmail.com","phone_number":"09250919576","address":"Rosabella st. Sta. Lucia, Pasig City","notes":"","created_at":"2025-06-18T18:31:46.430424+00:00"},{"first_name":"Aouie","last_name":"Quines","email":"aouie367@outlook.com","phone_number":"09200247554","address":"3717 Durian St. Centennial II Pinagbuhatan, Pasig City","notes":"Prefers weekend appointments","created_at":"2025-06-18T18:31:46.895266+00:00"},{"first_name":"Jennilyn","last_name":"Padua","email":"jennilynpadua@yahoo.com","phone_number":"09256216685","address":"BLK 1 LOT 5 #37A Eusebio Ave.San Miguel, Pasig City","notes":"","created_at":"2025-06-18T18:31:47.360738+00:00"},{"first_name":"Shalei Rocel","last_name":"Visda","email":"shaleirocelvisda@yahoo.com","phone_number":"09183621310","address":"265 Dr.Pilapil San Miguel, Pasig City","notes":"","created_at":"2025-06-18T18:31:47.825837+00:00"}]}